[gd_scene load_steps=9 format=2]

[ext_resource path="res://scripts/palet.gd" type="Script" id=1]
[ext_resource path="res://textures/cross.svg" type="Texture" id=2]

[sub_resource type="CapsuleShape2D" id=1]
height = 50.0

[sub_resource type="Gradient" id=2]
offsets = PoolRealArray( 0, 0.298805, 1 )
colors = PoolColorArray( 1, 1, 1, 0, 1, 1, 1, 1, 1, 1, 1, 0 )

[sub_resource type="GradientTexture" id=3]
gradient = SubResource( 2 )

[sub_resource type="Curve" id=4]
_data = [ Vector2( 0, 0 ), 0.0, 0.0, 0, 0, Vector2( 0.222628, 0.736364 ), 3.58068, 3.58068, 0, 0, Vector2( 0.434307, 1 ), 0.0, 0.0, 0, 0, Vector2( 0.667883, 0.718182 ), -2.49091, -2.49091, 0, 0, Vector2( 1, 0 ), 0.0, 0.0, 0, 0 ]

[sub_resource type="CurveTexture" id=5]
width = 128
curve = SubResource( 4 )

[sub_resource type="ParticlesMaterial" id=6]
emission_shape = 2
emission_box_extents = Vector3( 5, 25, 1 )
flag_rotate_y = true
flag_disable_z = true
gravity = Vector3( 0, 0, 0 )
initial_velocity = 50.0
orbit_velocity = 0.0
orbit_velocity_random = 0.0
angle = 360.0
angle_random = 1.0
scale = 0.03
scale_curve = SubResource( 5 )
color_ramp = SubResource( 3 )

[node name="palet" type="Node2D"]
script = ExtResource( 1 )
length = 50.0
color = Color( 0.65098, 0.356863, 0.356863, 1 )

[node name="physics" type="KinematicBody2D" parent="."]

[node name="shape" type="CollisionShape2D" parent="physics"]
shape = SubResource( 1 )

[node name="rect" type="Polygon2D" parent="."]
scale = Vector2( 10, 50 )
color = Color( 0.550781, 0.363602, 0.363602, 1 )
polygon = PoolVector2Array( -0.5, -0.5, 0.5, -0.5, 0.5, 0.5, -0.5, 0.5 )

[node name="boom" type="Particles2D" parent="."]
emitting = false
amount = 100
process_material = SubResource( 6 )
texture = ExtResource( 2 )
